<svg width="32" height="32" viewBox="0 0 32 32" fill="none" xmlns="http://www.w3.org/2000/svg">
<path fill-rule="evenodd" clip-rule="evenodd" d="M8.29799 0.145142L0.479492 7.96364H6.73429V17.3458H9.86169V7.96364H16.1165L8.29799 0.145142ZM22.3722 1.70865V4.83605H25.4996V1.70865H22.3722ZM22.3722 7.96351V11.0909H25.4996V7.96351H22.3722ZM22.3728 14.2185V23.6007H16.118L23.9365 31.4192L31.755 23.6007H25.5002V14.2185H22.3728ZM6.7341 20.4733V23.6007H9.8615V20.4733H6.7341ZM6.7341 26.728V29.8554H9.8615V26.728H6.7341Z"/>
</svg>
