<svg width="21" height="21" viewBox="0 0 21 21" xmlns="http://www.w3.org/2000/svg">
<path d="M20.1411 18.6283L14.5761 13.0143C15.8347 11.4238 16.4358 9.4114 16.2557 7.39118C16.0755 5.37096 15.1279 3.49664 13.6077 2.15394C12.0875 0.81124 10.1105 0.102308 8.08354 0.173039C6.05655 0.24377 4.13377 1.08878 2.7109 2.53418C1.28803 3.97958 0.473324 5.91539 0.434442 7.94325C0.39556 9.97111 1.13546 11.9367 2.50187 13.4356C3.86829 14.9345 5.75726 15.8526 7.78006 16.001C9.80286 16.1494 11.8056 15.5167 13.3761 14.2333L18.9021 19.8113C19.0584 19.9752 19.2733 20.0705 19.4997 20.0763C19.7261 20.0822 19.9456 19.998 20.1101 19.8423C20.2744 19.685 20.3699 19.4691 20.3757 19.2417C20.3815 19.0143 20.2972 18.7938 20.1411 18.6283ZM8.3501 14.3003C6.90205 14.3002 5.49883 13.798 4.37954 12.8793C3.26025 11.9606 2.49413 10.6822 2.21172 9.26197C1.92931 7.84172 2.14809 6.3675 2.83077 5.09048C3.51346 3.81346 4.61781 2.81265 5.95566 2.25859C7.29352 1.70452 8.7821 1.63148 10.1678 2.05191C11.5534 2.47233 12.7505 3.36021 13.5549 4.56426C14.3593 5.76831 14.7214 7.21404 14.5794 8.65511C14.4374 10.0962 13.8001 11.4434 12.7761 12.4673C12.1961 13.0502 11.5063 13.5123 10.7466 13.8269C9.98691 14.1415 9.17237 14.3024 8.3501 14.3003Z" />
</svg>
