<svg width="15" height="27" viewBox="0 0 15 27" fill="none" xmlns="http://www.w3.org/2000/svg">
<path d="M2.5 5.00024C3.88071 5.00024 5 3.88096 5 2.50024C5 1.11953 3.88071 0.000244141 2.5 0.000244141C1.11929 0.000244141 0 1.11953 0 2.50024C0 3.88096 1.11929 5.00024 2.5 5.00024Z" fill="#4D4D51"/>
<path d="M12.5 5.00024C13.8807 5.00024 15 3.88096 15 2.50024C15 1.11953 13.8807 0.000244141 12.5 0.000244141C11.1193 0.000244141 10 1.11953 10 2.50024C10 3.88096 11.1193 5.00024 12.5 5.00024Z" fill="#4D4D51"/>
<path d="M2.5 16.0002C3.88071 16.0002 5 14.881 5 13.5002C5 12.1195 3.88071 11.0002 2.5 11.0002C1.11929 11.0002 0 12.1195 0 13.5002C0 14.881 1.11929 16.0002 2.5 16.0002Z" fill="#4D4D51"/>
<path d="M12.5 16.0002C13.8807 16.0002 15 14.881 15 13.5002C15 12.1195 13.8807 11.0002 12.5 11.0002C11.1193 11.0002 10 12.1195 10 13.5002C10 14.881 11.1193 16.0002 12.5 16.0002Z" fill="#4D4D51"/>
<path d="M2.5 27.0002C3.88071 27.0002 5 25.881 5 24.5002C5 23.1195 3.88071 22.0002 2.5 22.0002C1.11929 22.0002 0 23.1195 0 24.5002C0 25.881 1.11929 27.0002 2.5 27.0002Z" fill="#4D4D51"/>
<path d="M12.5 27.0002C13.8807 27.0002 15 25.881 15 24.5002C15 23.1195 13.8807 22.0002 12.5 22.0002C11.1193 22.0002 10 23.1195 10 24.5002C10 25.881 11.1193 27.0002 12.5 27.0002Z" fill="#4D4D51"/>
</svg>
