<svg width="26" height="27" viewBox="0 0 26 27" fill="none" xmlns="http://www.w3.org/2000/svg">
<path fill-rule="evenodd" clip-rule="evenodd" d="M21 19.3799C21.6 18.5799 22.0667 17.7132 22.4 16.7799C22.4 16.7132 22.4667 16.6465 22.4667 16.5132C22.5333 16.3799 22.5333 16.1799 22.6 16.0465C22.6667 15.9132 22.6667 15.7799 22.7333 15.6465C22.7333 15.5132 22.8 15.3799 22.8 15.2465C22.8667 15.0465 22.8667 14.8465 22.8667 14.7132C22.8667 14.5799 22.8667 14.5132 22.9333 14.3799C22.9333 14.0465 23 13.7799 23 13.4465C23 7.9132 18.5333 3.44653 13 3.44653C7.46667 3.44653 3 7.84653 3 13.3799C3 13.7132 3 13.9799 3.06667 14.3132C3.06667 14.4465 3.06667 14.5132 3.13333 14.6465C3.13333 14.8465 3.2 15.0465 3.2 15.1799C3.2 15.3132 3.26667 15.4465 3.26667 15.5799C3.26667 15.7132 3.33333 15.8465 3.4 15.9799C3.46667 16.1132 3.46667 16.3132 3.53333 16.4465C3.53333 16.5132 3.6 16.5799 3.6 16.7132C3.93333 17.7132 4.4 18.5799 5 19.3799C6.8 21.7799 9.73333 23.3799 13 23.3799C16.2667 23.3799 19.1333 21.7799 21 19.3799ZM13 22.0465C9.93333 22.0465 7.26667 20.4465 5.73333 18.0465C6.8 16.3132 8.46667 15.0465 10.4667 14.4465C9.53333 13.7132 9 12.5799 9 11.3799C9 9.17987 10.8 7.37987 13 7.37987C15.2 7.37987 17 9.17987 17 11.3799C17 12.5799 16.4667 13.7132 15.6 14.4465C17.5333 15.0465 19.2 16.3799 20.3333 18.0465C18.7333 20.4465 16.0667 22.0465 13 22.0465Z" fill="#56CCF2"/>
</svg>
