<svg width="35" height="35" viewBox="0 0 35 35" fill="none" xmlns="http://www.w3.org/2000/svg">
<path d="M14.3181 10.2984C14.3181 12.9134 19.5181 14.2824 24.6591 14.2824C29.8001 14.2824 35.0001 12.9134 35.0001 10.2984C35.0001 5.06737 14.3181 5.06737 14.3181 10.2984Z" />
<path d="M34.6181 14.1574C34.5009 14.0869 34.3675 14.0477 34.2307 14.0435C34.094 14.0393 33.9585 14.0703 33.8371 14.1334C27.9402 16.4575 21.381 16.4575 15.4841 14.1334C15.3623 14.0707 15.2264 14.0403 15.0894 14.0452C14.9525 14.0502 14.8191 14.0902 14.702 14.1614C14.585 14.2327 14.4882 14.3328 14.421 14.4523C14.3538 14.5717 14.3183 14.7063 14.3181 14.8434V15.0834C14.3181 17.6984 19.5181 19.0674 24.6591 19.0674C29.8001 19.0674 35.0001 17.6984 35.0001 15.0834V14.8434C35.0008 14.7058 34.966 14.5704 34.8991 14.4503C34.8321 14.3301 34.7354 14.2292 34.6181 14.1574Z" />
<path d="M4.77295 26.2354C4.77295 28.8504 9.97295 30.2194 15.114 30.2194C20.255 30.2194 25.4549 28.8504 25.4549 26.2354C25.4549 21.0044 4.77295 21.0044 4.77295 26.2354Z" />
<path d="M25.073 30.0944C24.9557 30.0239 24.8223 29.9847 24.6856 29.9805C24.5488 29.9763 24.4133 30.0073 24.2919 30.0704C21.4065 31.3444 18.2676 31.9406 15.116 31.8134C11.9643 31.9406 8.82542 31.3444 5.93995 30.0704C5.81874 30.0078 5.68354 29.9772 5.5472 29.9816C5.41085 29.986 5.27789 30.0252 5.16095 30.0954C5.04401 30.1657 4.94697 30.2646 4.87906 30.3829C4.81115 30.5013 4.77462 30.635 4.77295 30.7714V31.0114C4.77295 33.6264 9.97295 34.9954 15.114 34.9954C20.255 34.9954 25.4549 33.6264 25.4549 31.0114V30.7714C25.4541 30.6354 25.4185 30.5018 25.3517 30.3834C25.2849 30.2649 25.1889 30.1654 25.073 30.0944Z" />
<path d="M10.341 7.90737C11.4079 7.908 12.474 7.84757 13.534 7.72637C13.704 7.70642 13.8631 7.63246 13.988 7.51537C15.7031 6.16064 17.7674 5.32043 19.941 5.09237C20.0805 5.06857 20.2113 5.00818 20.3198 4.91735C20.4284 4.82652 20.5109 4.70851 20.559 4.57537C20.6372 4.36712 20.6785 4.14682 20.681 3.92437C20.682 -1.30763 0 -1.30763 0 3.92337C0 6.53837 5.2 7.90737 10.341 7.90737Z" />
<path d="M10.341 12.6884C11 12.6884 11.641 12.6654 12.264 12.6244C12.3875 12.6154 12.5072 12.5778 12.6137 12.5147C12.7202 12.4515 12.8106 12.3645 12.8778 12.2605C12.945 12.1565 12.9871 12.0383 13.0009 11.9152C13.0146 11.7922 12.9996 11.6676 12.957 11.5514C12.8004 11.1361 12.7238 10.6951 12.731 10.2514C12.7309 10.1435 12.7089 10.0368 12.6664 9.93762C12.624 9.83847 12.5619 9.74891 12.484 9.67436C12.4072 9.59844 12.3152 9.53967 12.214 9.50192C12.1128 9.46417 12.0048 9.4483 11.897 9.45535C11.377 9.48035 10.858 9.49736 10.34 9.49736C7.18837 9.62454 4.04948 9.0283 1.164 7.75436C1.0423 7.69217 0.906692 7.6622 0.770117 7.66731C0.633542 7.67241 0.500553 7.71241 0.38383 7.78351C0.267108 7.85461 0.170547 7.95442 0.103354 8.07343C0.0361616 8.19245 0.000579051 8.32669 0 8.46336L0 8.70336C0 11.3194 5.2 12.6884 10.341 12.6884Z" />
<path d="M10.341 17.4694C11 17.4694 11.641 17.4464 12.264 17.4054C12.3875 17.3963 12.5072 17.3588 12.6137 17.2957C12.7202 17.2325 12.8106 17.1455 12.8778 17.0415C12.945 16.9375 12.9871 16.8193 13.0009 16.6963C13.0146 16.5732 12.9996 16.4486 12.957 16.3324C12.801 15.9169 12.723 15.4762 12.727 15.0324C12.7269 14.9245 12.7049 14.8178 12.6624 14.7186C12.62 14.6195 12.5579 14.5299 12.48 14.4554C12.4026 14.3802 12.3105 14.3219 12.2095 14.2842C12.1084 14.2466 12.0007 14.2302 11.893 14.2364C11.375 14.2614 10.857 14.2784 10.34 14.2784C7.18837 14.4055 4.04948 13.8093 1.164 12.5354C1.0423 12.4732 0.906692 12.4432 0.770117 12.4483C0.633542 12.4534 0.500553 12.4934 0.38383 12.5645C0.267108 12.6356 0.170547 12.7354 0.103354 12.8544C0.0361616 12.9735 0.000579051 13.1077 0 13.2444L0 13.4844C0 16.1004 5.2 17.4694 10.341 17.4694Z" />
<path d="M34.616 23.7194C34.499 23.6481 34.3656 23.6084 34.2286 23.6042C34.0917 23.6 33.9561 23.6314 33.835 23.6954C31.92 24.5933 29.8558 25.1306 27.746 25.2803C27.5354 25.3313 27.3496 25.4551 27.2214 25.6299C27.0933 25.8047 27.0312 26.0192 27.046 26.2354C27.0461 26.6365 26.9784 27.0347 26.846 27.4134C26.8032 27.5401 26.7929 27.6754 26.8159 27.8072C26.839 27.9389 26.8947 28.0627 26.9779 28.1674C27.0612 28.272 27.1693 28.3541 27.2925 28.4062C27.4157 28.4582 27.5499 28.4785 27.683 28.4653C32.264 27.9703 34.999 26.5414 34.999 24.6414V24.4004C34.9987 24.2636 34.9633 24.1291 34.8963 24.0099C34.8292 23.8907 34.7327 23.7907 34.616 23.7194Z" />
<path d="M15.1169 20.6574L15.6439 20.6664H15.6579C15.8381 20.6629 16.0118 20.5988 16.1509 20.4843C16.2901 20.3698 16.3865 20.2117 16.4246 20.0355C16.4627 19.8594 16.4402 19.6756 16.3607 19.5138C16.2813 19.3521 16.1496 19.2219 15.9869 19.1444L15.8169 19.0684C15.7039 19.0184 15.5889 18.9684 15.4839 18.9134C15.3621 18.8505 15.2262 18.8199 15.0892 18.8247C14.9522 18.8295 14.8187 18.8693 14.7015 18.9405C14.5843 19.0117 14.4875 19.1118 14.4201 19.2312C14.3528 19.3506 14.3172 19.4853 14.3169 19.6224V19.8624C14.3182 20.0737 14.4031 20.2759 14.553 20.4248C14.7028 20.5738 14.9056 20.6574 15.1169 20.6574Z" />
<path d="M34.6161 18.9384C34.4988 18.8679 34.3654 18.8287 34.2287 18.8245C34.092 18.8203 33.9564 18.8513 33.835 18.9144C30.9496 20.1883 27.8107 20.7845 24.6591 20.6574L24.1341 20.6474C23.9524 20.6491 23.7766 20.7112 23.6342 20.8241C23.4919 20.9369 23.3912 21.0939 23.348 21.2704C23.3085 21.4489 23.3313 21.6356 23.4126 21.7993C23.494 21.9631 23.6289 22.094 23.7951 22.1704C24.569 22.5039 25.2771 22.9729 25.8861 23.5554C26.0354 23.704 26.2373 23.7877 26.4481 23.7884H26.4981C30.4191 23.5394 34.9981 22.3624 34.9981 19.8634V19.6234C34.9986 19.486 34.9637 19.3508 34.8968 19.2308C34.8298 19.1109 34.7332 19.0101 34.6161 18.9384Z" />
<path d="M6.653 22.0033C6.75333 22.0034 6.85276 21.9844 6.946 21.9473C8.57975 21.3394 10.2889 20.9576 12.026 20.8123C12.2393 20.7522 12.4253 20.6204 12.5528 20.4392C12.6803 20.258 12.7414 20.0384 12.726 19.8174C12.7261 19.7094 12.7043 19.6025 12.662 19.5031C12.6197 19.4038 12.5577 19.314 12.4798 19.2393C12.4019 19.1645 12.3096 19.1064 12.2086 19.0682C12.1076 19.0301 11.9999 19.0128 11.892 19.0173C11.374 19.0423 10.856 19.0593 10.339 19.0593C7.18737 19.1865 4.04848 18.5903 1.163 17.3163C1.04126 17.2544 0.905669 17.2246 0.769154 17.2298C0.632639 17.2351 0.499748 17.2752 0.383144 17.3464C0.266539 17.4176 0.170107 17.5175 0.103038 17.6365C0.035968 17.7555 0.000495326 17.8897 0 18.0264L0 18.2663C0 20.0273 2.445 21.4213 6.542 21.9953C6.57875 22.0007 6.61585 22.0034 6.653 22.0033Z" />
</svg>
