<svg width="30" height="20" viewBox="0 0 15 21" fill="none" xmlns="http://www.w3.org/2000/svg">
<path d="M9.6942 18.0142C9.80684 17.8701 9.86803 17.6926 9.86803 17.5097C9.86803 17.3268 9.80684 17.1492 9.6942 17.0052C9.6412 16.9372 9.7992 17.1052 7.9592 15.2602C7.8829 15.1839 7.79232 15.1234 7.69263 15.0821C7.59294 15.0408 7.48611 15.0195 7.3782 15.0195C7.2703 15.0195 7.16345 15.0408 7.06377 15.0821C6.96408 15.1234 6.87349 15.1839 6.7972 15.2602C6.7209 15.3365 6.66037 15.4271 6.61908 15.5268C6.57779 15.6265 6.55653 15.7333 6.55653 15.8412C6.55653 15.9491 6.57779 16.056 6.61908 16.1556C6.66037 16.2553 6.7209 16.3459 6.7972 16.4222L7.06419 16.6892H5.7092C5.49132 16.6892 5.28237 16.7757 5.12831 16.9298C4.97425 17.0839 4.8877 17.2928 4.8877 17.5107C4.8877 17.7286 4.97425 17.9375 5.12831 18.0916C5.28237 18.2456 5.49132 18.3322 5.7092 18.3322H7.06419L6.7972 18.5992C6.7209 18.6755 6.66037 18.7661 6.61908 18.8658C6.57779 18.9654 6.55653 19.0723 6.55653 19.1802C6.55653 19.2881 6.57779 19.3949 6.61908 19.4946C6.66037 19.5943 6.7209 19.6849 6.7972 19.7612C6.87349 19.8375 6.96408 19.898 7.06377 19.9393C7.16345 19.9806 7.2703 20.0019 7.3782 20.0019C7.48611 20.0019 7.59294 19.9806 7.69263 19.9393C7.79232 19.898 7.8829 19.8375 7.9592 19.7612C9.8152 17.9062 9.6452 18.0792 9.6942 18.0162V18.0142Z"/>
<path d="M13.2188 0.000244141H1.53682C1.31908 0.000244141 1.11025 0.0867421 0.956284 0.240709C0.802316 0.394677 0.71582 0.603501 0.71582 0.821244V17.5102C0.71582 17.728 0.802316 17.9368 0.956284 18.0908C1.11025 18.2447 1.31908 18.3312 1.53682 18.3312H2.37082C2.58856 18.3312 2.79739 18.2447 2.95135 18.0908C3.10532 17.9368 3.19182 17.728 3.19182 17.5102C3.19182 16.4003 3.63274 15.3358 4.41758 14.551C5.20242 13.7662 6.26689 13.3252 7.37682 13.3252C8.48675 13.3252 9.55122 13.7662 10.3361 14.551C11.1209 15.3358 11.5618 16.4003 11.5618 17.5102C11.5618 17.728 11.6483 17.9368 11.8023 18.0908C11.9563 18.2447 12.1651 18.3312 12.3828 18.3312H13.2168C13.4346 18.3312 13.6434 18.2447 13.7974 18.0908C13.9513 17.9368 14.0378 17.728 14.0378 17.5102V0.821244C14.0378 0.603847 13.9516 0.395325 13.7981 0.241415C13.6445 0.0875054 13.4362 0.000773731 13.2188 0.000244141V0.000244141ZM5.70882 3.33824H9.04682C9.2647 3.33824 9.47365 3.42479 9.62771 3.57886C9.78177 3.73292 9.86832 3.94187 9.86832 4.15974C9.86832 4.37762 9.78177 4.58657 9.62771 4.74063C9.47365 4.89469 9.2647 4.98124 9.04682 4.98124H5.70982C5.49195 4.98124 5.28299 4.89469 5.12893 4.74063C4.97487 4.58657 4.88832 4.37762 4.88832 4.15974C4.88832 3.94187 4.97487 3.73292 5.12893 3.57886C5.28299 3.42479 5.49195 3.33824 5.70982 3.33824H5.70882ZM9.88282 8.31824H4.87482C4.65694 8.31824 4.44799 8.23169 4.29393 8.07763C4.13987 7.92357 4.05332 7.71462 4.05332 7.49674C4.05332 7.27887 4.13987 7.06992 4.29393 6.91586C4.44799 6.76179 4.65694 6.67524 4.87482 6.67524H9.88282C10.1007 6.67524 10.3096 6.76179 10.4637 6.91586C10.6178 7.06992 10.7043 7.27887 10.7043 7.49674C10.7043 7.71462 10.6178 7.92357 10.4637 8.07763C10.3096 8.23169 10.1007 8.31824 9.88282 8.31824Z"/>
</svg>
